{
  "name": "M5ez",
  "description": "Complete interface builder for the M5Stack, an ESP32 based mini tinker-computer",
  "keywords": "m5ez, m5stack, esp32",
  "authors": {
    "name": "Rop Gonggrijp",
    "url": "https://github.com/ropg"
    "maintainer": true
  },
  "repository": {
    "type": "git",
    "url": "https://github.com/ropg/M5ez"
  },
  "dependencies": {
  	"name": "M5Stack"
  },
  "version": "1.0.0",
  "framework": "arduino",
  "platforms": "espressif32"
  "build": {
    "libArchive": false
  }
}
